Design of randomized comparative phase II oncology trials with a Bernoulli distributed primary outcome • ph2rand
…
We can then readily find the terminal points of any of these designs, along with their probability mass functions and operating characteristics for any true response rates. For example, consider two scenarios given by

pi <- rbind(c(0.1, 0.1),
            c(0.1, 0.3))

Then find the terminal points, probability mass functions, and operating characteristics (both analytically and via simulation) of the Jung

(2008) design with

terminal_jung <- terminal(des_jung)
terminal_jung$terminal
#> # A tibble: 1,344 x 7
#>       xC    xE    mC    mE statistic decision            k    
#>    <int> <int> <int> <int>     <int> <fct>               <fct>
#>  1     0     0    17    17         0 Do not reject       1    
#>  2     0     1    17    17         1 Continue to stage 2 1    
#>  3     0     2    17    17         2 Continue to stage 2 1    
#>  4     0     3    17    17         3 Continue to stage 2 1    
#>  5     0     4    17    17         4 Continue to stage 2 1    
#>  6     0     5    17    17         5 Continue to stage 2 1    
#>  7     0     6    17    17         6 Continue to stage 2 1    
#>  8     0     7    17    17         7 Continue to stage 2 1    
#>  9     0     8    17    17         8 Continue to stage 2 1    
#> 10     0     9    17    17         9 Continue to stage 2 1    
#> # … with 1,334 more rows
pmf_jung      <- pmf(des_jung, pi)
pmf_jung$pmf
#> # A tibble: 2,382 x 10
#>      piC   piE    xC    xE    mC    mE statistic decision      k     `f(x,m|pi)`
#>    <dbl> <dbl> <int> <int> <int> <int>     <int> <fct>         <fct>       <dbl>
#>  1   0.1   0.1     0     0    17    17         0 Do not reject 1          0.0278
#>  2   0.1   0.1     1     0    17    17        -1 Do not reject 1          0.0525
#>  3   0.1   0.1     1     1    17    17         0 Do not reject 1          0.0992
#>  4   0.1   0.1     2     0    17    17        -2 Do not reject 1          0.0467
#>  5   0.1   0.1     2     1    17    17        -1 Do not reject 1          0.0882
#>  6   0.1   0.1     2     2    17    17         0 Do not reject 1          0.0784
#>  7   0.1   0.1     3     0    17    17        -3 Do not reject 1          0.0259
#>  8   0.1   0.1     3     1    17    17        -2 Do not reject 1          0.0490
#>  9   0.1   0.1     3     2    17    17        -1 Do not reject 1          0.0436
#> 10   0.1   0.1     3     3    17    17         0 Do not reject 1          0.0242
#> # … with 2,372 more rows
…
